{
    "requests": [
        {
            "method": "GET",
            "url": "https://reqres.in/api/users?page=2",
            "response": {
                "page": 2,
                "per_page": 6,
                "total": 12,
                "total_pages": 2,
                "data": [
                    {
                        "id": 7,
                        "email": "michael.lawson@reqres.in",
                        "first_name": "Michael",
                        "last_name": "Lawson",
                        "avatar": "https://reqres.in/img/faces/7-image.jpg"
                    },
                    {
                        "id": 8,
                        "email": "lindsay.ferguson@reqres.in",
                        "first_name": "Lindsay",
                        "last_name": "Ferguson",
                        "avatar": "https://reqres.in/img/faces/8-image.jpg"
                    },
                    {
                        "id": 9,
                        "email": "tobias.funke@reqres.in",
                        "first_name": "Tobias",
                        "last_name": "Funke",
                        "avatar": "https://reqres.in/img/faces/9-image.jpg"
                    },
                    {
                        "id": 10,
                        "email": "byron.fields@reqres.in",
                        "first_name": "Byron",
                        "last_name": "Fields",
                        "avatar": "https://reqres.in/img/faces/10-image.jpg"
                    },
                    {
                        "id": 11,
                        "email": "george.edwards@reqres.in",
                        "first_name": "George",
                        "last_name": "Edwards",
                        "avatar": "https://reqres.in/img/faces/11-image.jpg"
                    },
                    {
                        "id": 12,
                        "email": "rachel.howell@reqres.in",
                        "first_name": "Rachel",
                        "last_name": "Howell",
                        "avatar": "https://reqres.in/img/faces/12-image.jpg"
                    }
                ]
            }
        },
        {
            "method": "GET", 
            "url": "https://reqres.in/api/users/2",
            "response": {
                "data": {
                    "id": 2,
                    "email": "janet.weaver@reqres.in",
                    "first_name": "Janet",
                    "last_name": "Weaver",
                    "avatar": "https://reqres.in/img/faces/2-image.jpg"
                }
            }
        },
        {
            "method": "POST",
            "url": "https://reqres.in/api/users",
            "body": {
                "name": "morpheus",
                "job": "leader"
            },
            "response": {
                "name": "morpheus",
                "job": "leader", 
                "id": "542",
                "createdAt": "2024-10-29T15:35:37.870Z"
            }
        },
        {
            "method": "PUT",
            "url": "https://reqres.in/api/users/2",
            "body": {
                "name": "morpheus",
                "job": "zion resident"
            },
            "response": {
                "name": "morpheus",
                "job": "zion resident",
                "updatedAt": "2024-10-29T15:40:27.263Z"
            }
        },
        {
            "method": "DELETE",
            "url": "https://reqres.in/api/users/2",
            "response": 204
        }
    ]
}